

WIDTH=32;
DEPTH=256;

ADDRESS_RADIX=HEX;
DATA_RADIX=HEX;

CONTENT BEGIN

 00000000 : 00000020;
 00000001 : 00001010;
 00000002 : 00040000;
 00000003 : 00000000;
 00000004 : 20000000;
 00000005 : 00000000;
 00000006 : 00000000;
 00000007 : 00000000;
 00000008 : 0032E03A;
 00000009 : C800603A;
 0000000A : 00000006;
 0000000B : 003FFC06;
 0000000C : 003DA03A;
 0000000D : 003DA03A;
 0000000E : 003DA03A;
 0000000F : 003DA03A;
 00000010 : 003DA03A;
 00000011 : 003DA03A;
 00000012 : 003DA03A;
 00000013 : 003DA03A;
 00000014 : 003DA03A;
 00000015 : 003DA03A;
 00000016 : 003DA03A;
 00000017 : 003DA03A;
 00000018 : 003DA03A;
 00000019 : 003DA03A;
 0000001A : 003DA03A;
 0000001B : 003DA03A;
 0000001C : 003DA03A;
 0000001D : 003DA03A;
 0000001E : 003DA03A;
 0000001F : 003DA03A;
 00000020 : 003DA03A;
 00000021 : 003DA03A;
 00000022 : 003DA03A;
 00000023 : 003DA03A;
 00000024 : 003DA03A;
 00000025 : 003DA03A;
 00000026 : 003DA03A;
 00000027 : 003DA03A;
 00000028 : 003DA03A;
 00000029 : 003DA03A;
 0000002A : 003DA03A;
 0000002B : 003DA03A;
 0000002C : 003DA03A;
 0000002D : 003DA03A;
 0000002E : 003DA03A;
 0000002F : 003DA03A;
 00000030 : 003DA03A;
 00000031 : 003DA03A;
 00000032 : 003DA03A;
 00000033 : 003DA03A;
 00000034 : 003DA03A;
 00000035 : 003DA03A;
 00000036 : 003DA03A;
 00000037 : 003DA03A;
 00000038 : 003DA03A;
 00000039 : 003DA03A;
 0000003A : 003DA03A;
 0000003B : 003DA03A;
 0000003C : 003DA03A;
 0000003D : 003DA03A;
 0000003E : 003DA03A;
 0000003F : 003DA03A;
 00000040 : 003DA03A;
 00000041 : 003DA03A;
 00000042 : 003DA03A;
 00000043 : 003DA03A;
 00000044 : 003DA03A;
 00000045 : 003DA03A;
 00000046 : 003DA03A;
 00000047 : 003DA03A;
 00000048 : 003DA03A;
 00000049 : 003DA03A;
 0000004A : 003DA03A;
 0000004B : 003DA03A;
 0000004C : 003DA03A;
 0000004D : 003DA03A;
 0000004E : 003DA03A;
 0000004F : 003DA03A;
 00000050 : 003DA03A;
 00000051 : 003DA03A;
 00000052 : 003DA03A;
 00000053 : 003DA03A;
 00000054 : 003DA03A;
 00000055 : 003DA03A;
 00000056 : 003DA03A;
 00000057 : 003DA03A;
 00000058 : 003DA03A;
 00000059 : 003DA03A;
 0000005A : 003DA03A;
 0000005B : 003DA03A;
 0000005C : 003DA03A;
 0000005D : 003DA03A;
 0000005E : 003DA03A;
 0000005F : 003DA03A;
 00000060 : 003DA03A;
 00000061 : 003DA03A;
 00000062 : 003DA03A;
 00000063 : 003DA03A;
 00000064 : 003DA03A;
 00000065 : 003DA03A;
 00000066 : 003DA03A;
 00000067 : 003DA03A;
 00000068 : 003DA03A;
 00000069 : 003DA03A;
 0000006A : 003DA03A;
 0000006B : 003DA03A;
 0000006C : 003DA03A;
 0000006D : 003DA03A;
 0000006E : 003DA03A;
 0000006F : 003DA03A;
 00000070 : 003DA03A;
 00000071 : 003DA03A;
 00000072 : 003DA03A;
 00000073 : 003DA03A;
 00000074 : 003DA03A;
 00000075 : 003DA03A;
 00000076 : 003DA03A;
 00000077 : 003DA03A;
 00000078 : 003DA03A;
 00000079 : 003DA03A;
 0000007A : 003DA03A;
 0000007B : 003DA03A;
 0000007C : 003DA03A;
 0000007D : 003DA03A;
 0000007E : 003DA03A;
 0000007F : 003DA03A;
 00000080 : 003DA03A;
 00000081 : 003DA03A;
 00000082 : 003DA03A;
 00000083 : 003DA03A;
 00000084 : 003DA03A;
 00000085 : 003DA03A;
 00000086 : 003DA03A;
 00000087 : 003DA03A;
 00000088 : 003DA03A;
 00000089 : 003DA03A;
 0000008A : 003DA03A;
 0000008B : 003DA03A;
 0000008C : 003DA03A;
 0000008D : 003DA03A;
 0000008E : 003DA03A;
 0000008F : 003DA03A;
 00000090 : 003DA03A;
 00000091 : 003DA03A;
 00000092 : 003DA03A;
 00000093 : 003DA03A;
 00000094 : 003DA03A;
 00000095 : 003DA03A;
 00000096 : 003DA03A;
 00000097 : 003DA03A;
 00000098 : 003DA03A;
 00000099 : 003DA03A;
 0000009A : 003DA03A;
 0000009B : 003DA03A;
 0000009C : 003DA03A;
 0000009D : 003DA03A;
 0000009E : 003DA03A;
 0000009F : 003DA03A;
 000000A0 : 003DA03A;
 000000A1 : 003DA03A;
 000000A2 : 003DA03A;
 000000A3 : 003DA03A;
 000000A4 : 003DA03A;
 000000A5 : 003DA03A;
 000000A6 : 003DA03A;
 000000A7 : 003DA03A;
 000000A8 : 003DA03A;
 000000A9 : 003DA03A;
 000000AA : 003DA03A;
 000000AB : 003DA03A;
 000000AC : 003DA03A;
 000000AD : 003DA03A;
 000000AE : 003DA03A;
 000000AF : 003DA03A;
 000000B0 : 003DA03A;
 000000B1 : 003DA03A;
 000000B2 : 003DA03A;
 000000B3 : 003DA03A;
 000000B4 : 003DA03A;
 000000B5 : 003DA03A;
 000000B6 : 003DA03A;
 000000B7 : 003DA03A;
 000000B8 : 003DA03A;
 000000B9 : 003DA03A;
 000000BA : 003DA03A;
 000000BB : 003DA03A;
 000000BC : 003DA03A;
 000000BD : 003DA03A;
 000000BE : 003DA03A;
 000000BF : 003DA03A;
 000000C0 : 003DA03A;
 000000C1 : 003DA03A;
 000000C2 : 003DA03A;
 000000C3 : 003DA03A;
 000000C4 : 003DA03A;
 000000C5 : 003DA03A;
 000000C6 : 003DA03A;
 000000C7 : 003DA03A;
 000000C8 : 003DA03A;
 000000C9 : 003DA03A;
 000000CA : 003DA03A;
 000000CB : 003DA03A;
 000000CC : 003DA03A;
 000000CD : 003DA03A;
 000000CE : 003DA03A;
 000000CF : 003DA03A;
 000000D0 : 003DA03A;
 000000D1 : 003DA03A;
 000000D2 : 003DA03A;
 000000D3 : 003DA03A;
 000000D4 : 003DA03A;
 000000D5 : 003DA03A;
 000000D6 : 003DA03A;
 000000D7 : 003DA03A;
 000000D8 : 003DA03A;
 000000D9 : 003DA03A;
 000000DA : 003DA03A;
 000000DB : 003DA03A;
 000000DC : 003DA03A;
 000000DD : 003DA03A;
 000000DE : 003DA03A;
 000000DF : 003DA03A;
 000000E0 : 003DA03A;
 000000E1 : 003DA03A;
 000000E2 : 003DA03A;
 000000E3 : 003DA03A;
 000000E4 : 003DA03A;
 000000E5 : 003DA03A;
 000000E6 : 003DA03A;
 000000E7 : 003DA03A;
 000000E8 : 003DA03A;
 000000E9 : 003DA03A;
 000000EA : 003DA03A;
 000000EB : 003DA03A;
 000000EC : 003DA03A;
 000000ED : 003DA03A;
 000000EE : 003DA03A;
 000000EF : 003DA03A;
 000000F0 : 003DA03A;
 000000F1 : 003DA03A;
 000000F2 : 003DA03A;
 000000F3 : 003DA03A;
 000000F4 : 003DA03A;
 000000F5 : 003DA03A;
 000000F6 : 003DA03A;
 000000F7 : 003DA03A;
 000000F8 : 003DA03A;
 000000F9 : 003DA03A;
 000000FA : 003DA03A;
 000000FB : 003DA03A;
 000000FC : 003DA03A;
 000000FD : 003DA03A;
 000000FE : 003DA03A;
 000000FF : 003DA03A;

END;

